^C:\DEV\REPOSITORIES\C++\JONIKOIVULA_CPPJAKSO2\DEBUG\FUNKTIOT.OBJ|C:\DEV\REPOSITORIES\C++\JONIKOIVULA_CPPJAKSO2\DEBUG\OSOITTIMET_JA_VIITTAUKSET.OBJ|C:\DEV\REPOSITORIES\C++\JONIKOIVULA_CPPJAKSO2\DEBUG\TAULUKOT.OBJ
C:\DEV\REPOSITORIES\C++\JONIKOIVULA_CPPJAKSO2\DEBUG\JONIKOIVULA_CPPJAKSO2.ILK
C:\DEV\REPOSITORIES\C++\JONIKOIVULA_CPPJAKSO2\DEBUG\JONIKOIVULA_CPPJAKSO2.EXE
C:\DEV\REPOSITORIES\C++\JONIKOIVULA_CPPJAKSO2\DEBUG\JONIKOIVULA_CPPJAKSO2.PDB
